This is pdfTeX, Version 3.14159265-2.6-1.40.20 (MiKTeX 2.9.7200 64-bit) (preloaded format=pdflatex 2019.10.16)  31 OCT 2019 08:11
entering extended mode
**./Tugasoracle2.tex
(Tugasoracle2.tex
LaTeX2e <2019-10-01>
("C:\Users\GL503GE\AppData\Local\Programs\MiKTeX 2.9\tex/latex/base\article.cls
"
Document Class: article 2019/08/27 v1.4j Standard LaTeX document class
("C:\Users\GL503GE\AppData\Local\Programs\MiKTeX 2.9\tex/latex/base\size12.clo"
File: size12.clo 2019/08/27 v1.4j Standard LaTeX file (size option)
)
\c@part=\count80
\c@section=\count81
\c@subsection=\count82
\c@subsubsection=\count83
\c@paragraph=\count84
\c@subparagraph=\count85
\c@figure=\count86
\c@table=\count87
\abovecaptionskip=\skip41
\belowcaptionskip=\skip42
\bibindent=\dimen102
)
("C:\Users\GL503GE\AppData\Local\Programs\MiKTeX 2.9\tex/latex/base\inputenc.st
y"
Package: inputenc 2018/08/11 v1.3c Input encoding file
\inpenc@prehook=\toks14
\inpenc@posthook=\toks15
)
("C:\Users\GL503GE\AppData\Local\Programs\MiKTeX 2.9\tex/latex/graphics\graphic
x.sty"
Package: graphicx 2017/06/01 v1.1a Enhanced LaTeX Graphics (DPC,SPQR)

("C:\Users\GL503GE\AppData\Local\Programs\MiKTeX 2.9\tex/latex/graphics\keyval.
sty"
Package: keyval 2014/10/28 v1.15 key=value parser (DPC)
\KV@toks@=\toks16
)
("C:\Users\GL503GE\AppData\Local\Programs\MiKTeX 2.9\tex/latex/graphics\graphic
s.sty"
Package: graphics 2019/07/20 v1.3b Standard LaTeX Graphics (DPC,SPQR)

("C:\Users\GL503GE\AppData\Local\Programs\MiKTeX 2.9\tex/latex/graphics\trig.st
y"
Package: trig 2016/01/03 v1.10 sin cos tan (DPC)
)
("C:\Users\GL503GE\AppData\Local\Programs\MiKTeX 2.9\tex/latex/graphics-cfg\gra
phics.cfg"
File: graphics.cfg 2016/06/04 v1.11 sample graphics configuration
)
Package graphics Info: Driver file: pdftex.def on input line 105.

("C:\Users\GL503GE\AppData\Local\Programs\MiKTeX 2.9\tex/latex/graphics-def\pdf
tex.def"
File: pdftex.def 2018/01/08 v1.0l Graphics/color driver for pdftex
))
\Gin@req@height=\dimen103
\Gin@req@width=\dimen104
)

LaTeX Warning: Unused global option(s):
    [timesnewroman].

(Tugasoracle2.aux)
\openout1 = `Tugasoracle2.aux'.

LaTeX Font Info:    Checking defaults for OML/cmm/m/it on input line 10.
LaTeX Font Info:    ... okay on input line 10.
LaTeX Font Info:    Checking defaults for T1/cmr/m/n on input line 10.
LaTeX Font Info:    ... okay on input line 10.
LaTeX Font Info:    Checking defaults for OT1/cmr/m/n on input line 10.
LaTeX Font Info:    ... okay on input line 10.
LaTeX Font Info:    Checking defaults for OMS/cmsy/m/n on input line 10.
LaTeX Font Info:    ... okay on input line 10.
LaTeX Font Info:    Checking defaults for OMX/cmex/m/n on input line 10.
LaTeX Font Info:    ... okay on input line 10.
LaTeX Font Info:    Checking defaults for U/cmr/m/n on input line 10.
LaTeX Font Info:    ... okay on input line 10.

("C:\Users\GL503GE\AppData\Local\Programs\MiKTeX 2.9\tex/context/base/mkii\supp
-pdf.mkii"
[Loading MPS to PDF converter (version 2006.09.02).]
\scratchcounter=\count88
\scratchdimen=\dimen105
\scratchbox=\box27
\nofMPsegments=\count89
\nofMParguments=\count90
\everyMPshowfont=\toks17
\MPscratchCnt=\count91
\MPscratchDim=\dimen106
\MPnumerator=\count92
\makeMPintoPDFobject=\count93
\everyMPtoPDFconversion=\toks18
)
("C:\Users\GL503GE\AppData\Local\Programs\MiKTeX 2.9\tex/latex/oberdiek\epstopd
f-base.sty"
Package: epstopdf-base 2016/05/15 v2.6 Base part for package epstopdf

("C:\Users\GL503GE\AppData\Local\Programs\MiKTeX 2.9\tex/generic/oberdiek\infwa
rerr.sty"
Package: infwarerr 2016/05/16 v1.4 Providing info/warning/error messages (HO)
)
("C:\Users\GL503GE\AppData\Local\Programs\MiKTeX 2.9\tex/latex/oberdiek\grfext.
sty"
Package: grfext 2016/05/16 v1.2 Manage graphics extensions (HO)

("C:\Users\GL503GE\AppData\Local\Programs\MiKTeX 2.9\tex/generic/oberdiek\kvdef
inekeys.sty"
Package: kvdefinekeys 2016/05/16 v1.4 Define keys (HO)

("C:\Users\GL503GE\AppData\Local\Programs\MiKTeX 2.9\tex/generic/oberdiek\ltxcm
ds.sty"
Package: ltxcmds 2016/05/16 v1.23 LaTeX kernel commands for general use (HO)
)))
("C:\Users\GL503GE\AppData\Local\Programs\MiKTeX 2.9\tex/latex/oberdiek\kvoptio
ns.sty"
Package: kvoptions 2016/05/16 v3.12 Key value format for package options (HO)

("C:\Users\GL503GE\AppData\Local\Programs\MiKTeX 2.9\tex/generic/oberdiek\kvset
keys.sty"
Package: kvsetkeys 2016/05/16 v1.17 Key value parser (HO)

("C:\Users\GL503GE\AppData\Local\Programs\MiKTeX 2.9\tex/generic/oberdiek\etexc
mds.sty"
Package: etexcmds 2016/05/16 v1.6 Avoid name clashes with e-TeX commands (HO)

("C:\Users\GL503GE\AppData\Local\Programs\MiKTeX 2.9\tex/generic/oberdiek\iflua
tex.sty"
Package: ifluatex 2016/05/16 v1.4 Provides the ifluatex switch (HO)
Package ifluatex Info: LuaTeX not detected.
))))
("C:\Users\GL503GE\AppData\Local\Programs\MiKTeX 2.9\tex/generic/oberdiek\pdfte
xcmds.sty"
Package: pdftexcmds 2019/07/25 v0.30 Utility functions of pdfTeX for LuaTeX (HO
)

("C:\Users\GL503GE\AppData\Local\Programs\MiKTeX 2.9\tex/generic/oberdiek\ifpdf
.sty"
Package: ifpdf 2018/09/07 v3.3 Provides the ifpdf switch
)
Package pdftexcmds Info: LuaTeX not detected.
Package pdftexcmds Info: \pdf@primitive is available.
Package pdftexcmds Info: \pdf@ifprimitive is available.
Package pdftexcmds Info: \pdfdraftmode found.
)
Package epstopdf-base Info: Redefining graphics rule for `.eps' on input line 4
38.
Package grfext Info: Graphics extension search list:
(grfext)             [.pdf,.png,.jpg,.mps,.jpeg,.jbig2,.jb2,.PDF,.PNG,.JPG,.JPE
G,.JBIG2,.JB2,.eps]
(grfext)             \AppendGraphicsExtensions on input line 456.
)
LaTeX Font Info:    External font `cmex10' loaded for size
(Font)              <14.4> on input line 12.
LaTeX Font Info:    External font `cmex10' loaded for size
(Font)              <7> on input line 12.

Overfull \hbox (14.18764pt too wide) in paragraph at lines 13--13
[]\OT1/cmr/bx/n/17.28 Memulai den-gan Or-a-cle SQL De-vel-oper Data
 []


Underfull \hbox (badness 10000) in paragraph at lines 14--19

 []


Overfull \hbox (4.75157pt too wide) in paragraph at lines 26--27
\OT1/cmr/m/n/12 nah meng-gu-nakan Or-a-cle SQL De-vel-oper Data Mod-eler tetapi
 memi-liki penge-
 []


Overfull \hbox (70.00772pt too wide) in paragraph at lines 30--34
\OT1/cmr/m/n/12 http://www.oracle.com/technetwork/developer-tools/datamodeler/d
ownloads/index.html
 []

[1

{C:/Users/GL503GE/AppData/Local/MiKTeX/2.9/pdftex/config/pdftex.map}]
<Gambar/A1.PNG, id=8, 823.878pt x 464.937pt>
File: Gambar/A1.PNG Graphic file (type png)
<use Gambar/A1.PNG>
Package pdftex.def Info: Gambar/A1.PNG  used on input line 45.
(pdftex.def)             Requested size: 411.93799pt x 232.46793pt.

Overfull \hbox (21.93799pt too wide) in paragraph at lines 45--46
 [][] 
 []

<Gambar/coba.PNG, id=10, 230.0595pt x 203.5605pt>
File: Gambar/coba.PNG Graphic file (type png)
<use Gambar/coba.PNG>
Package pdftex.def Info: Gambar/coba.PNG  used on input line 67.
(pdftex.def)             Requested size: 115.02946pt x 101.78pt.
File: Gambar/A1.PNG Graphic file (type png)
<use Gambar/A1.PNG>
Package pdftex.def Info: Gambar/A1.PNG  used on input line 89.
(pdftex.def)             Requested size: 411.93799pt x 232.46793pt.

Overfull \hbox (21.93799pt too wide) in paragraph at lines 89--90
 [][] 
 []

<Gambar/TOOLS.PNG, id=11, 314.3745pt x 37.3395pt>
File: Gambar/TOOLS.PNG Graphic file (type png)
<use Gambar/TOOLS.PNG>
Package pdftex.def Info: Gambar/TOOLS.PNG  used on input line 111.
(pdftex.def)             Requested size: 471.56058pt x 56.00908pt.

Overfull \hbox (81.56058pt too wide) in paragraph at lines 111--112
 [][] 
 []

<Gambar/board.PNG, id=12, 810.6285pt x 443.256pt>
File: Gambar/board.PNG Graphic file (type png)
<use Gambar/board.PNG>
Package pdftex.def Info: Gambar/board.PNG  used on input line 133.
(pdftex.def)             Requested size: 405.31326pt x 221.62746pt.

Overfull \hbox (15.31326pt too wide) in paragraph at lines 133--134
 [][] 
 []

<Gambar/CUSTOMER.PNG, id=13, 520.344pt x 332.442pt>
File: Gambar/CUSTOMER.PNG Graphic file (type png)
<use Gambar/CUSTOMER.PNG>
Package pdftex.def Info: Gambar/CUSTOMER.PNG  used on input line 155.
(pdftex.def)             Requested size: 260.17136pt x 166.22058pt.
<Gambar/relasi.PNG, id=14, 70.46326pt x 16.863pt>
File: Gambar/relasi.PNG Graphic file (type png)
<use Gambar/relasi.PNG>
Package pdftex.def Info: Gambar/relasi.PNG  used on input line 177.
(pdftex.def)             Requested size: 105.69461pt x 25.29442pt.
<Gambar/engineer.PNG, id=15, 23.48775pt x 25.2945pt>
File: Gambar/engineer.PNG Graphic file (type png)
<use Gambar/engineer.PNG>
Package pdftex.def Info: Gambar/engineer.PNG  used on input line 199.
(pdftex.def)             Requested size: 340.57123pt x 366.76906pt.
<Gambar/HASIL.PNG, id=16, 821.469pt x 440.847pt>
File: Gambar/HASIL.PNG Graphic file (type png)
<use Gambar/HASIL.PNG>
Package pdftex.def Info: Gambar/HASIL.PNG  used on input line 221.
(pdftex.def)             Requested size: 410.73349pt x 220.42296pt.

Overfull \hbox (20.73349pt too wide) in paragraph at lines 221--222
 [][] 
 []


Underfull \hbox (badness 10000) in paragraph at lines 36--224

 []


Underfull \hbox (badness 10000) in paragraph at lines 36--224

 []


Underfull \hbox (badness 10000) in paragraph at lines 36--224

 []


Underfull \hbox (badness 10000) in paragraph at lines 36--224

 []


Underfull \hbox (badness 10000) in paragraph at lines 36--224

 []


Underfull \hbox (badness 10000) in paragraph at lines 36--224

 []


Underfull \hbox (badness 10000) in paragraph at lines 36--224

 []


Underfull \hbox (badness 10000) in paragraph at lines 36--224

 []


Underfull \hbox (badness 10000) in paragraph at lines 36--224

 []


Underfull \hbox (badness 10000) in paragraph at lines 36--224

 []


Underfull \hbox (badness 10000) in paragraph at lines 36--224

 []


Underfull \hbox (badness 10000) in paragraph at lines 36--224

 []


Underfull \hbox (badness 10000) in paragraph at lines 36--224

 []


Underfull \hbox (badness 10000) in paragraph at lines 36--224

 []


Underfull \hbox (badness 10000) in paragraph at lines 36--224

 []


Underfull \hbox (badness 10000) in paragraph at lines 36--224

 []


Underfull \hbox (badness 10000) in paragraph at lines 36--224

 []


Underfull \hbox (badness 10000) in paragraph at lines 36--224

 []


Underfull \hbox (badness 10000) in paragraph at lines 36--224

 []


Underfull \hbox (badness 10000) in paragraph at lines 36--224

 []


Underfull \hbox (badness 10000) in paragraph at lines 36--224

 []


Underfull \hbox (badness 10000) in paragraph at lines 36--224

 []


Underfull \hbox (badness 10000) in paragraph at lines 36--224

 []


Underfull \hbox (badness 10000) in paragraph at lines 36--224

 []


Underfull \hbox (badness 10000) in paragraph at lines 36--224

 []


Underfull \hbox (badness 10000) in paragraph at lines 36--224

 []


Underfull \hbox (badness 10000) in paragraph at lines 36--224

 []


Underfull \hbox (badness 10000) in paragraph at lines 36--224

 []


Underfull \hbox (badness 10000) in paragraph at lines 36--224

 []


Underfull \hbox (badness 10000) in paragraph at lines 36--224

 []


Underfull \hbox (badness 10000) in paragraph at lines 36--224

 []


Underfull \hbox (badness 10000) in paragraph at lines 36--224

 []


Underfull \hbox (badness 10000) in paragraph at lines 36--224

 []


Underfull \hbox (badness 10000) in paragraph at lines 36--224

 []


Underfull \hbox (badness 10000) in paragraph at lines 36--224

 []


Underfull \hbox (badness 10000) in paragraph at lines 36--224

 []


Underfull \hbox (badness 10000) in paragraph at lines 36--224

 []


Underfull \hbox (badness 10000) in paragraph at lines 36--224

 []


Underfull \hbox (badness 10000) in paragraph at lines 36--224

 []


Underfull \hbox (badness 10000) in paragraph at lines 36--224

 []


Underfull \hbox (badness 10000) in paragraph at lines 36--224

 []


Underfull \hbox (badness 10000) in paragraph at lines 36--224

 []


Underfull \hbox (badness 10000) in paragraph at lines 36--224

 []


Underfull \hbox (badness 10000) in paragraph at lines 36--224

 []


Underfull \hbox (badness 10000) in paragraph at lines 36--224

 []


Underfull \hbox (badness 10000) in paragraph at lines 36--224

 []


Underfull \hbox (badness 10000) in paragraph at lines 36--224

 []


Underfull \hbox (badness 10000) in paragraph at lines 36--224

 []


Underfull \hbox (badness 10000) in paragraph at lines 36--224

 []


Underfull \hbox (badness 10000) in paragraph at lines 36--224

 []


Underfull \hbox (badness 10000) in paragraph at lines 36--224

 []


Underfull \hbox (badness 10000) in paragraph at lines 36--224

 []


Underfull \hbox (badness 10000) in paragraph at lines 36--224

 []


Underfull \hbox (badness 10000) in paragraph at lines 36--224

 []


Underfull \hbox (badness 10000) in paragraph at lines 36--224

 []


Underfull \hbox (badness 10000) in paragraph at lines 36--224

 []


Underfull \hbox (badness 10000) in paragraph at lines 36--224

 []


Underfull \hbox (badness 10000) in paragraph at lines 36--224

 []


Underfull \hbox (badness 10000) in paragraph at lines 36--224

 []


Underfull \hbox (badness 10000) in paragraph at lines 36--224

 []


Underfull \hbox (badness 10000) in paragraph at lines 36--224

 []


Underfull \hbox (badness 10000) in paragraph at lines 36--224

 []


Underfull \hbox (badness 10000) in paragraph at lines 36--224

 []


Underfull \hbox (badness 10000) in paragraph at lines 36--224

 []


Underfull \hbox (badness 10000) in paragraph at lines 36--224

 []


Underfull \hbox (badness 10000) in paragraph at lines 36--224

 []


Underfull \hbox (badness 10000) in paragraph at lines 36--224

 []


Underfull \hbox (badness 10000) in paragraph at lines 36--224

 []


Underfull \hbox (badness 10000) in paragraph at lines 36--224

 []


Underfull \hbox (badness 10000) in paragraph at lines 36--224

 []


Underfull \hbox (badness 10000) in paragraph at lines 36--224

 []


Underfull \hbox (badness 10000) in paragraph at lines 36--224

 []


Underfull \hbox (badness 10000) in paragraph at lines 36--224

 []


Underfull \hbox (badness 10000) in paragraph at lines 36--224

 []


Underfull \hbox (badness 10000) in paragraph at lines 36--224

 []


Underfull \hbox (badness 10000) in paragraph at lines 36--224

 []


Underfull \hbox (badness 10000) in paragraph at lines 36--224

 []


Underfull \hbox (badness 10000) in paragraph at lines 36--224

 []


Underfull \hbox (badness 10000) in paragraph at lines 36--224

 []


Underfull \hbox (badness 10000) in paragraph at lines 36--224

 []


Underfull \hbox (badness 10000) in paragraph at lines 36--224

 []


Underfull \hbox (badness 10000) in paragraph at lines 36--224

 []


Underfull \hbox (badness 10000) in paragraph at lines 36--224

 []


Underfull \hbox (badness 10000) in paragraph at lines 36--224

 []


Underfull \hbox (badness 10000) in paragraph at lines 36--224

 []


Underfull \hbox (badness 10000) in paragraph at lines 36--224

 []


Underfull \hbox (badness 10000) in paragraph at lines 36--224

 []


Underfull \hbox (badness 10000) in paragraph at lines 36--224

 []


Underfull \hbox (badness 10000) in paragraph at lines 36--224

 []


Underfull \hbox (badness 10000) in paragraph at lines 36--224

 []


Underfull \hbox (badness 10000) in paragraph at lines 36--224

 []


Underfull \hbox (badness 10000) in paragraph at lines 36--224

 []


Underfull \hbox (badness 10000) in paragraph at lines 36--224

 []


Underfull \hbox (badness 10000) in paragraph at lines 36--224

 []


Underfull \hbox (badness 10000) in paragraph at lines 36--224

 []


Underfull \hbox (badness 10000) in paragraph at lines 36--224

 []


Underfull \hbox (badness 10000) in paragraph at lines 36--224

 []


Underfull \hbox (badness 10000) in paragraph at lines 36--224

 []


Underfull \hbox (badness 10000) in paragraph at lines 36--224

 []


Underfull \hbox (badness 10000) in paragraph at lines 36--224

 []


Underfull \hbox (badness 10000) in paragraph at lines 36--224

 []


Underfull \hbox (badness 10000) in paragraph at lines 36--224

 []


Underfull \hbox (badness 10000) in paragraph at lines 36--224

 []


Underfull \hbox (badness 10000) in paragraph at lines 36--224

 []


Underfull \hbox (badness 10000) in paragraph at lines 36--224

 []


Underfull \hbox (badness 10000) in paragraph at lines 36--224

 []


Underfull \hbox (badness 10000) in paragraph at lines 36--224

 []


Underfull \hbox (badness 10000) in paragraph at lines 36--224

 []


Underfull \hbox (badness 10000) in paragraph at lines 36--224

 []


Underfull \hbox (badness 10000) in paragraph at lines 36--224

 []


Underfull \hbox (badness 10000) in paragraph at lines 36--224

 []


Underfull \hbox (badness 10000) in paragraph at lines 36--224

 []


Underfull \hbox (badness 10000) in paragraph at lines 36--224

 []


Underfull \hbox (badness 10000) in paragraph at lines 36--224

 []


Underfull \hbox (badness 10000) in paragraph at lines 36--224

 []


Underfull \hbox (badness 10000) in paragraph at lines 36--224

 []


Underfull \hbox (badness 10000) in paragraph at lines 36--224

 []


Underfull \hbox (badness 10000) in paragraph at lines 36--224

 []


Underfull \hbox (badness 10000) in paragraph at lines 36--224

 []


Underfull \hbox (badness 10000) in paragraph at lines 36--224

 []


LaTeX Warning: `h' float specifier changed to `ht'.

[2] [3 <./Gambar/A1.PNG> <./Gambar/coba.PNG>] [4]

LaTeX Warning: `h' float specifier changed to `ht'.

[5 <./Gambar/TOOLS.PNG>]

LaTeX Warning: `h' float specifier changed to `ht'.

[6 <./Gambar/board.PNG>] [7 <./Gambar/CUSTOMER.PNG> <./Gambar/relasi.PNG>]
[8 <./Gambar/engineer.PNG>] [9 <./Gambar/HASIL.PNG>] (Tugasoracle2.aux) ) 
Here is how much of TeX's memory you used:
 1526 strings out of 492452
 23098 string characters out of 3119129
 93606 words of memory out of 3000000
 5891 multiletter control sequences out of 15000+200000
 6370 words of font info for 23 fonts, out of 3000000 for 9000
 1141 hyphenation exceptions out of 8191
 46i,7n,30p,281b,219s stack positions out of 5000i,500n,10000p,200000b,50000s
<C:/Us
ers/GL503GE/AppData/Local/Programs/MiKTeX 2.9/fonts/type1/public/amsfonts/cm/cm
bx12.pfb><C:/Users/GL503GE/AppData/Local/Programs/MiKTeX 2.9/fonts/type1/public
/amsfonts/cm/cmr12.pfb><C:/Users/GL503GE/AppData/Local/Programs/MiKTeX 2.9/font
s/type1/public/amsfonts/cm/cmr17.pfb>
Output written on Tugasoracle2.pdf (9 pages, 289165 bytes).
PDF statistics:
 61 PDF objects out of 1000 (max. 8388607)
 0 named destinations out of 1000 (max. 500000)
 41 words of extra memory for PDF output out of 10000 (max. 10000000)

